Client for Delphis Epidata' API • epidatr
…
library(epidatr)
# Obtain the smoothed covid-like illness (CLI) signal from the
# Facebook survey as it was on April 10, 2021 for the US
epidata <- pub_covidcast(
  source = "fb-survey",
  signals = "smoothed_cli",
  geo_type = "nation",
  time_type = "day",
  geo_values = "us",
  time_values = epirange(20210101, 20210601),
  as_of = "2021-06-01"
)
epidata
#> # A tibble: 151 × 15
#>    geo_value signal    source geo_type time_type time_value direction issue     
#>    <chr>     <chr>     <chr>  <fct>    <fct>     <date>         <dbl> <date>    
#>  1 us        smoothed… fb-su… nation   day       2021-01-01        NA 2021-01-06
#>  2 us        smoothed… fb-su… nation   day       2021-01-02        NA 2021-01-07
#>  3 us        smoothed… fb-su… nation   day       2021-01-03        NA 2021-01-08
#>  4 us        smoothed… fb-su… nation   day       2021-01-04        NA 2021-01-09
#>  5 us        smoothed… fb-su… nation   day       2021-01-05        NA 2021-01-10
#>  6 us        smoothed… fb-su… nation   day       2021-01-06        NA 2021-01-29
#>  7 us        smoothed… fb-su… nation   day       2021-01-07        NA 2021-01-29
#>  8 us        smoothed… fb-su… nation   day       2021-01-08        NA 2021-01-29
#>  9 us        smoothed… fb-su… nation   day       2021-01-09        NA 2021-01-29
#> 10 us        smoothed… fb-su… nation   day       2021-01-10        NA 2021-01-29
#> # ℹ 141 more rows
#> # ℹ 7 more variables: lag <int>, missing_value <int>, missing_stderr <int>,
#> #   missing_sample_size <int>, value <dbl>, stderr <dbl>, sample_size <dbl>
…
