Delphi Epidata R API Client • epidatr
…
In this case, the pub_covidcast() function lets us
specify these parameters for the endpoint and returns a tibble with the
results:

epidata <- pub_covidcast(
  "fb-survey", "smoothed_cli", "state", "day", "pa",
  epirange(20210105, 20210410)
)
epidata
#> # A tibble: 96 × 15
#>   geo_value signal     source geo_type time_type time_value direction issue     
#>   <chr>     <chr>      <chr>  <fct>    <fct>     <date>         <dbl> <date>    
#> 1 pa        smoothed_… fb-su… state    day       2021-01-05        NA 2021-01-10
#> 2 pa        smoothed_… fb-su… state    day       2021-01-06        NA 2021-01-29
#> 3 pa        smoothed_… fb-su… state    day       2021-01-07        NA 2021-01-29
#> 4 pa        smoothed_… fb-su… state    day       2021-01-08        NA 2021-01-29
#> # ℹ 92 more rows
#> # ℹ 7 more variables: lag <int>, missing_value <int>, missing_stderr <int>,
#> #   missing_sample_size <int>, value <dbl>, stderr <dbl>, sample_size <dbl>
…
Advanced Usage (Experimental)

The COVIDcast
endpoint of the Epidata API contains many separate data sources and
signals. It can be difficult to find the name of the signal you’re
looking for, so you can use covidcast_epidata() to get help
with finding sources and functions without leaving R.

The covidcast_epidata() function fetches a list of all
signals, and returns an object containing fields for every signal:

epidata <- covidcast_epidata()
epidata$signals
#> # A tibble: 443 × 3
#>   source signal                        short_description                        
#>   <chr>  <chr>                         <chr>                                    
#> 1 chng   smoothed_outpatient_cli       Estimated percentage of outpatient docto…
#> 2 chng   smoothed_adj_outpatient_cli   Estimated percentage of outpatient docto…
#> 3 chng   smoothed_outpatient_covid     COVID-Confirmed Doctor Visits            
#> 4 chng   smoothed_adj_outpatient_covid COVID-Confirmed Doctor Visits            
#> # ℹ 439 more rows
…
epidata$signals$`fb-survey:smoothed_cli`
#> [1] "COVID-Like Symptoms (Unweighted 7-day average)"
#> [1] "fb-survey:smoothed_cli"
#> [1] "Estimated percentage of people with COVID-like illness "

These objects can be used directly to fetch data, without requiring
us to use the pub_covidcast() function. Simply use the
$call attribute of the object:

epidata$signals$`fb-survey:smoothed_cli`$call("state", "pa", epirange(20210405, 20210410))
#> # A tibble: 6 × 15
#>   geo_value signal     source geo_type time_type time_value direction issue     
#>   <chr>     <chr>      <chr>  <fct>    <fct>     <date>         <dbl> <date>    
#> 1 pa        smoothed_… fb-su… state    day       2021-04-05        NA 2021-04-10
#> 2 pa        smoothed_… fb-su… state    day       2021-04-06        NA 2021-04-11
#> 3 pa        smoothed_… fb-su… state    day       2021-04-07        NA 2021-04-12
#> 4 pa        smoothed_… fb-su… state    day       2021-04-08        NA 2021-04-13
#> # ℹ 2 more rows
#> # ℹ 7 more variables: lag <int>, missing_value <int>, missing_stderr <int>,
#> #   missing_sample_size <int>, value <dbl>, stderr <dbl>, sample_size <dbl>
…
API docs: https://cmu-delphi.github.io/delphi-epidata/api/covidcast_signals.html

County geo_values are FIPS
codes and are discussed in the API docs here.
The example below is for Orange County, California.

pub_covidcast(
  source = "fb-survey",
  signals = "smoothed_accept_covid_vaccine",
  geo_type = "county",
  time_type = "day",
  time_values = epirange(20201221, 20201225),
  geo_values = "06059"
)
#> # A tibble: 5 × 15
#>   geo_value signal     source geo_type time_type time_value direction issue     
#>   <chr>     <chr>      <chr>  <fct>    <fct>     <date>         <dbl> <date>    
#> 1 06059     smoothed_… fb-su… county   day       2020-12-21        NA 2020-12-22
#> 2 06059     smoothed_… fb-su… county   day       2020-12-22        NA 2020-12-23
#> 3 06059     smoothed_… fb-su… county   day       2020-12-23        NA 2020-12-24
#> 4 06059     smoothed_… fb-su… county   day       2020-12-24        NA 2020-12-25
#> # ℹ 1 more row
#> # ℹ 7 more variables: lag <int>, missing_value <int>, missing_stderr <int>,
#> #   missing_sample_size <int>, value <dbl>, stderr <dbl>, sample_size <dbl>

The covidcast endpoint supports * in its
time and geo fields:

pub_covidcast(
  source = "fb-survey",
  signals = "smoothed_accept_covid_vaccine",
  geo_type = "county",
  time_type = "day",
  time_values = epirange(20201221, 20201225),
  geo_values = "*"
)
#> # A tibble: 2,025 × 15
#>   geo_value signal     source geo_type time_type time_value direction issue     
#>   <chr>     <chr>      <chr>  <fct>    <fct>     <date>         <dbl> <date>    
#> 1 01000     smoothed_… fb-su… county   day       2020-12-21        NA 2020-12-22
#> 2 01073     smoothed_… fb-su… county   day       2020-12-21        NA 2020-12-22
#> 3 01089     smoothed_… fb-su… county   day       2020-12-21        NA 2020-12-22
#> 4 01097     smoothed_… fb-su… county   day       2020-12-21        NA 2020-12-22
#> # ℹ 2,021 more rows
#> # ℹ 7 more variables: lag <int>, missing_value <int>, missing_stderr <int>,
#> #   missing_sample_size <int>, value <dbl>, stderr <dbl>, sample_size <dbl>
…
