An abstraction that holds information needed to make an epidata request — create_epidata_call • epidatr
…
For fetch: a tibble or a JSON-like list

For with_base_url: an epidata_call object

    Examples

covidcast(
  data_source = "jhu-csse",
  signals = "confirmed_7dav_incidence_prop",
  time_type = "day",
  geo_type = "state",
  time_values = epirange(20200601, 20200801),
  geo_values = c("ca", "fl")
) %>% fetch()
#> # A tibble: 124 × 15
#>    geo_value signal    source geo_type time_type time_value direction issue     
#>    <chr>     <chr>     <chr>  <fct>    <fct>     <date>         <dbl> <date>    
#>  1 ca        confirme… jhu-c… state    day       2020-06-01        NA 2023-03-10
#>  2 fl        confirme… jhu-c… state    day       2020-06-01        NA 2023-03-03
#>  3 ca        confirme… jhu-c… state    day       2020-06-02        NA 2023-03-10
#>  4 fl        confirme… jhu-c… state    day       2020-06-02        NA 2023-03-03
#>  5 ca        confirme… jhu-c… state    day       2020-06-03        NA 2023-03-10
#>  6 fl        confirme… jhu-c… state    day       2020-06-03        NA 2023-03-03
#>  7 ca        confirme… jhu-c… state    day       2020-06-04        NA 2023-03-10
#>  8 fl        confirme… jhu-c… state    day       2020-06-04        NA 2023-03-03
#>  9 ca        confirme… jhu-c… state    day       2020-06-05        NA 2023-03-10
#> 10 fl        confirme… jhu-c… state    day       2020-06-05        NA 2023-03-03
#> # ℹ 114 more rows
#> # ℹ 7 more variables: lag <int>, missing_value <int>, missing_stderr <int>,
#> #   missing_sample_size <int>, value <dbl>, stderr <dbl>, sample_size <dbl>
…
