Endpoint Examples • epidatr
…
covidcast(
  data_source = "fb-survey",
  signals = "smoothed_accept_covid_vaccine",
  geo_type = "county",
  time_type = "day",
  time_values = epirange(20201221, 20201225),
  geo_values = "*"
) %>% fetch()

## # A tibble: 2,025 × 15
##    geo_value signal    source geo_type time_type time_value direction issue     
##    <chr>     <chr>     <chr>  <fct>    <fct>     <date>         <dbl> <date>    
##  1 01000     smoothed… fb-su… county   day       2020-12-21        NA 2020-12-22
##  2 01073     smoothed… fb-su… county   day       2020-12-21        NA 2020-12-22
##  3 01089     smoothed… fb-su… county   day       2020-12-21        NA 2020-12-22
##  4 01097     smoothed… fb-su… county   day       2020-12-21        NA 2020-12-22
##  5 02000     smoothed… fb-su… county   day       2020-12-21        NA 2020-12-22
##  6 04000     smoothed… fb-su… county   day       2020-12-21        NA 2020-12-22
##  7 04013     smoothed… fb-su… county   day       2020-12-21        NA 2020-12-22
##  8 04019     smoothed… fb-su… county   day       2020-12-21        NA 2020-12-22
##  9 05000     smoothed… fb-su… county   day       2020-12-21        NA 2020-12-22
## 10 06000     smoothed… fb-su… county   day       2020-12-21        NA 2020-12-22
## # ℹ 2,015 more rows
## # ℹ 7 more variables: lag <int>, missing_value <int>, missing_stderr <int>,
## #   missing_sample_size <int>, value <dbl>, stderr <dbl>, sample_size <dbl>
…
Example calls:

covid_hosp_facility_lookup(city = "southlake") %>% fetch()

## # A tibble: 2 × 10
##   hospital_pk state ccn    hospital_name    address city  zip   hospital_subtype
##   <chr>       <chr> <chr>  <chr>            <chr>   <chr> <chr> <chr>           
## 1 450888      TX    450888 TEXAS HEALTH HA… 1545 E… SOUT… 76092 Short Term      
## 2 670132      TX    670132 METHODIST SOUTH… 421 E … SOUT… 76092 Short Term      
## # ℹ 2 more variables: fips_code <chr>, is_metro_micro <int>

covid_hosp_facility_lookup(state = "WY") %>% fetch()

## # A tibble: 34 × 10
##    hospital_pk    state ccn   hospital_name address city  zip   hospital_subtype
##    <chr>          <chr> <chr> <chr>         <chr>   <chr> <chr> <chr>           
##  1 100 LANCASTER… WY    2020… 42091         NA      [C39… MAIN  390195          
##  2 2333 BIDDLE A… WY    2020… 26163         POINT … [C23… HENRY 230146          
##  3 2333 BIDDLE A… WY    2020… 26163         POINT … [C23… SELEC 232031          
##  4 2752 CENTURY … WY    2020… 42011         POINT … [C39… SURGI 390316          
##  5 310 SOUTH FAL… WY    2020… 05037         POINT … [C04… CROSS 041307          
##  6 5200 FAIRVIEW… WY    2020… 27025         POINT … [C24… FAIRV 240050          
##  7 530002         WY    5300… CAMPBELL COU… 501 SO… GILL… 82716 Short Term      
##  8 530006         WY    5300… SHERIDAN MEM… 1401 W… SHER… 82801 Short Term      
##  9 530008         WY    5300… SAGEWEST HEA… 2100 W… RIVE… 82501 Short Term      
## 10 530011         WY    5300… MEMORIAL HOS… 1200 C… ROCK… 82901 Short Term      
## # ℹ 24 more rows
## # ℹ 2 more variables: fips_code <chr>, is_metro_micro <int>

A non-example (there is no city called New York in Wyoming);

covid_hosp_facility_lookup(state = "WY", city = "New York") %>% fetch()

## # A tibble: 34 × 10
##    hospital_pk    state ccn   hospital_name address city  zip   hospital_subtype
##    <chr>          <chr> <chr> <chr>         <chr>   <chr> <chr> <chr>           
##  1 100 LANCASTER… WY    2020… 42091         NA      [C39… MAIN  390195          
##  2 2333 BIDDLE A… WY    2020… 26163         POINT … [C23… HENRY 230146          
##  3 2333 BIDDLE A… WY    2020… 26163         POINT … [C23… SELEC 232031          
##  4 2752 CENTURY … WY    2020… 42011         POINT … [C39… SURGI 390316          
##  5 310 SOUTH FAL… WY    2020… 05037         POINT … [C04… CROSS 041307          
##  6 5200 FAIRVIEW… WY    2020… 27025         POINT … [C24… FAIRV 240050          
##  7 530002         WY    5300… CAMPBELL COU… 501 SO… GILL… 82716 Short Term      
##  8 530006         WY    5300… SHERIDAN MEM… 1401 W… SHER… 82801 Short Term      
##  9 530008         WY    5300… SAGEWEST HEA… 2100 W… RIVE… 82501 Short Term      
## 10 530011         WY    5300… MEMORIAL HOS… 1200 C… ROCK… 82901 Short Term      
## # ℹ 24 more rows
## # ℹ 2 more variables: fips_code <chr>, is_metro_micro <int>
…
Fluview data

API docs: https://cmu-delphi.github.io/delphi-epidata/api/fluview.html

Function reference: https://cmu-delphi.github.io/epidatr/reference/fluview.html

Example call:

fluview(regions = "nat", epiweeks = epirange(201201, 202001)) %>% fetch()

## # A tibble: 418 × 16
##    release_date region issue      epiweek      lag num_ili num_patients
##    <chr>        <chr>  <date>     <date>     <int>   <int>        <int>
##  1 2017-10-24   nat    2017-10-01 2012-01-01   300   11992       678631
##  2 2017-10-24   nat    2017-10-01 2012-01-08   299   11543       747894
##  3 2017-10-24   nat    2017-10-01 2012-01-15   298   11939       724623
##  4 2017-10-24   nat    2017-10-01 2012-01-22   297   13209       784244
##  5 2017-10-24   nat    2017-10-01 2012-01-29   296   14448       775298
##  6 2017-10-24   nat    2017-10-01 2012-02-05   295   14624       784516
##  7 2017-10-24   nat    2017-10-01 2012-02-12   294   15929       789193
##  8 2017-10-24   nat    2017-10-01 2012-02-19   293   16137       767022
##  9 2017-10-24   nat    2017-10-01 2012-02-26   292   16518       788242
## 10 2017-10-24   nat    2017-10-01 2012-03-04   291   15763       749198
## # ℹ 408 more rows
## # ℹ 9 more variables: num_providers <int>, num_age_0 <int>, num_age_1 <int>,
## #   num_age_2 <int>, num_age_3 <int>, num_age_4 <int>, num_age_5 <int>,
## #   wili <dbl>, ili <dbl>

Fluview virological data from clinical labs

API docs: https://cmu-delphi.github.io/delphi-epidata/api/fluview_clinical.html

Function reference: https://cmu-delphi.github.io/epidatr/reference/fluview_clinical.html

Example call:

fluview_clinical(regions = "nat", epiweeks = epirange(201601, 201701)) %>% fetch()

## # A tibble: 168 × 11
##    release_date region issue      epiweek      lag total_specimens total_a
##    <chr>        <chr>  <date>     <date>     <int>           <int>   <int>
##  1 2018-10-08   nat    2018-09-23 2016-10-02   103           13380     120
##  2 2018-10-08   nat    2018-09-23 2016-10-02   103           13380     120
##  3 2018-10-09   nat    2018-09-23 2016-10-02   103           13380     120
##  4 2018-10-09   nat    2018-09-23 2016-10-02   103           13380     120
##  5 2018-10-09   nat    2018-09-23 2016-10-02   103           13380     120
##  6 2018-10-10   nat    2018-09-23 2016-10-02   103           13380     120
##  7 2018-10-10   nat    2018-09-23 2016-10-02   103           13380     120
##  8 2018-10-10   nat    2018-09-23 2016-10-02   103           13380     120
##  9 2018-10-11   nat    2018-09-23 2016-10-02   103           13380     120
## 10 2018-10-11   nat    2018-09-23 2016-10-02   103           13380     120
## # ℹ 158 more rows
## # ℹ 4 more variables: total_b <int>, percent_positive <dbl>, percent_a <dbl>,
## #   percent_b <dbl>
…
## # A tibble: 1 × 3
##   latest_update latest_issue table_rows
##   <chr>         <date>            <int>
## 1 2022-09-09    NA              1692177

Google Flu Trends data

API docs: https://cmu-delphi.github.io/delphi-epidata/api/gft.html

Function reference: https://cmu-delphi.github.io/epidatr/reference/gft.html

gft(locations = "hhs1", epiweeks = epirange(201201, 202001)) %>% fetch()

## # A tibble: 189 × 3
##    location epiweek      num
##    <chr>    <date>     <int>
##  1 hhs1     2012-01-01  1567
##  2 hhs1     2012-01-08  1339
##  3 hhs1     2012-01-15  1220
##  4 hhs1     2012-01-22  1271
##  5 hhs1     2012-01-29  1181
##  6 hhs1     2012-02-05   994
##  7 hhs1     2012-02-12  1091
##  8 hhs1     2012-02-19  1030
##  9 hhs1     2012-02-26   856
## 10 hhs1     2012-03-04   799
## # ℹ 179 more rows
…
## # A tibble: 1 × 6
##   release_date region issue      epiweek      lag   ili
##   <chr>        <chr>  <date>     <date>     <int> <dbl>
## 1 2020-11-03   ROK    2020-11-01 2004-09-05   843   0.6

NIDSS Flu

API docs: https://cmu-delphi.github.io/delphi-epidata/api/nidss_flu.html

Function reference: https://cmu-delphi.github.io/epidatr/reference/nidss_flu.html

nidss_flu(regions = "taipei", epiweeks = epirange(200901, 201301)) %>% fetch()

## # A tibble: 209 × 7
##    release_date region issue      epiweek      lag visits   ili
##    <chr>        <chr>  <date>     <date>     <int>  <int> <dbl>
##  1 2015-08-04   Taipei 2015-07-26 2009-01-04   342  17021  1.14
##  2 2015-08-04   Taipei 2015-07-26 2009-01-11   341  20250  1.28
##  3 2015-08-04   Taipei 2015-07-26 2009-01-18   340  26337  1.36
##  4 2015-08-04   Taipei 2015-07-26 2009-01-25   339   8508  1.68
##  5 2015-08-04   Taipei 2015-07-26 2009-02-01   338  22275  1.34
##  6 2015-08-04   Taipei 2015-07-26 2009-02-08   337  19866  1.31
##  7 2015-08-04   Taipei 2015-07-26 2009-02-15   336  16779  1.16
##  8 2015-08-04   Taipei 2015-07-26 2009-02-22   335  14447  1.08
##  9 2015-08-04   Taipei 2015-07-26 2009-03-01   334  14365  1.01
## 10 2015-08-04   Taipei 2015-07-26 2009-03-08   333  14749  1   
## # ℹ 199 more rows

ILI Nearby Nowcast

API docs: https://cmu-delphi.github.io/delphi-epidata/api/nowcast.html

Function reference: https://cmu-delphi.github.io/epidatr/reference/nowcast.html

nowcast(locations = "ca", epiweeks = epirange(202201, 202319)) %>% fetch()

## # A tibble: 36 × 4
##    location epiweek    value   std
##    <chr>    <date>     <dbl> <dbl>
##  1 ca       2022-01-02  3.63 0.276
##  2 ca       2022-01-09  3.54 0.276
##  3 ca       2022-01-16  3.51 0.276
##  4 ca       2022-01-23  2.51 0.279
##  5 ca       2022-01-30  1.84 0.280
##  6 ca       2022-02-06  1.47 0.280
##  7 ca       2022-02-13  1.31 0.281
##  8 ca       2022-02-20  1.12 0.281
##  9 ca       2022-02-27  1.14 0.281
## 10 ca       2022-03-06  1.15 0.281
## # ℹ 26 more rows

Dengue Endpoints

Delphi’s Dengue Nowcast

API docs: https://cmu-delphi.github.io/delphi-epidata/api/dengue_nowcast.html

Function reference: https://cmu-delphi.github.io/epidatr/reference/dengue_nowcast.html

Example call:

dengue_nowcast(locations = "pr", epiweeks = epirange(201401, 202301)) %>% fetch()

## # A tibble: 320 × 4
##    location epiweek    value   std
##    <chr>    <date>     <dbl> <dbl>
##  1 pr       2014-02-23  92.7  547.
##  2 pr       2014-03-02  96.8  601.
##  3 pr       2014-03-09  93.5  655.
##  4 pr       2014-03-16  87.8  707.
##  5 pr       2014-03-23  94.0  758.
##  6 pr       2014-03-30  88.1  807.
##  7 pr       2014-04-06  93.7  858.
##  8 pr       2014-04-13 135.   740.
##  9 pr       2014-04-20 145.   767.
## 10 pr       2014-04-27 102.   793.
## # ℹ 310 more rows

NIDSS dengue

API docs: https://cmu-delphi.github.io/delphi-epidata/api/nidss_dengue.html

Function reference: https://cmu-delphi.github.io/epidatr/reference/nidss_dengue.html

nidss_dengue(locations = "taipei", epiweeks = epirange(200301, 201301)) %>% fetch()

## # A tibble: 523 × 3
##    location epiweek    count
##    <chr>    <date>     <int>
##  1 Taipei   2002-12-29     0
##  2 Taipei   2003-01-05     1
##  3 Taipei   2003-01-12     0
##  4 Taipei   2003-01-19     1
##  5 Taipei   2003-01-26     0
##  6 Taipei   2003-02-02     0
##  7 Taipei   2003-02-09     0
##  8 Taipei   2003-02-16     1
##  9 Taipei   2003-02-23     0
## 10 Taipei   2003-03-02     0
## # ℹ 513 more rows
…
Function reference: https://cmu-delphi.github.io/epidatr/reference/paho_dengue.html

paho_dengue(regions = "ca", epiweeks = epirange(200201, 202319)) %>% fetch()

Other Endpoints

Wikipedia Access

API docs: https://cmu-delphi.github.io/delphi-epidata/api/wiki.html

Function reference: https://cmu-delphi.github.io/epidatr/reference/wiki.html

wiki(language = "en", articles = "influenza", epiweeks = epirange(202001, 202319)) %>% fetch()

## # A tibble: 64 × 6
##    article   count     total  hour epiweek     value
##    <chr>     <int>     <int> <int> <date>      <dbl>
##  1 influenza  6516 663604044    -1 2019-12-29   9.82
##  2 influenza 10244 789885521    -1 2020-01-05  13.0 
##  3 influenza 10728 783760384    -1 2020-01-12  13.7 
##  4 influenza 24843 785222292    -1 2020-01-19  31.6 
##  5 influenza 62850 780291898    -1 2020-01-26  80.5 
##  6 influenza 41768 778222703    -1 2020-02-02  53.7 
##  7 influenza 29434 767244708    -1 2020-02-09  38.4 
##  8 influenza 22714 764074572    -1 2020-02-16  29.7 
##  9 influenza 88758 767718009    -1 2020-02-23 116.  
## 10 influenza 62433 759825311    -1 2020-03-01  82.2 
## # ℹ 54 more rows
…
