Delphi Epidata R API Client • epidatr
…
      Delphi Epidata R API Client

      Source: vignettes/epidatr.Rmd
      epidatr.Rmd

Basic Usage

Fetching some data from the Delphi Epidata API is simple. First, we
find the function for the endpoint we need, then we find the right
arguments, and finally we fetch a tibble with the data.

epicall <- covidcast("fb-survey", "smoothed_cli", "state", "day", "pa", epirange(20210405, 20210410))
epicall %>% fetch()
#> # A tibble: 6 × 15
#>   geo_value signal     source geo_type time_type time_value direction issue     
#>   <chr>     <chr>      <chr>  <fct>    <fct>     <date>         <dbl> <date>    
#> 1 pa        smoothed_… fb-su… state    day       2021-04-05        NA 2021-04-10
#> 2 pa        smoothed_… fb-su… state    day       2021-04-06        NA 2021-04-11
#> 3 pa        smoothed_… fb-su… state    day       2021-04-07        NA 2021-04-12
#> 4 pa        smoothed_… fb-su… state    day       2021-04-08        NA 2021-04-13
#> # ℹ 2 more rows
#> # ℹ 7 more variables: lag <int>, missing_value <int>, missing_stderr <int>,
#> #   missing_sample_size <int>, value <dbl>, stderr <dbl>, sample_size <dbl>
…
From there, you can construct a call analogous to the one above, but
using the API object instead of the functions directly.

epicall <- epidata$signals$`fb-survey:smoothed_cli`$call("state", "pa", epirange(20210405, 20210410))
epicall %>% fetch()
#> # A tibble: 6 × 15
#>   geo_value signal     source geo_type time_type time_value direction issue     
#>   <chr>     <chr>      <chr>  <fct>    <fct>     <date>         <dbl> <date>    
#> 1 pa        smoothed_… fb-su… state    day       2021-04-05        NA 2021-04-10
#> 2 pa        smoothed_… fb-su… state    day       2021-04-06        NA 2021-04-11
#> 3 pa        smoothed_… fb-su… state    day       2021-04-07        NA 2021-04-12
#> 4 pa        smoothed_… fb-su… state    day       2021-04-08        NA 2021-04-13
#> # ℹ 2 more rows
#> # ℹ 7 more variables: lag <int>, missing_value <int>, missing_stderr <int>,
#> #   missing_sample_size <int>, value <dbl>, stderr <dbl>, sample_size <dbl>
…
API docs: https://cmu-delphi.github.io/delphi-epidata/api/covidcast_signals.html

County geo_values are FIPS
codes and are discussed in the API docs here.
The example below is for Orange County, California.

covidcast(
  source = "fb-survey",
  signals = "smoothed_accept_covid_vaccine",
  geo_type = "county",
  time_type = "day",
  time_values = epirange(20201221, 20201225),
  geo_values = "06059"
) %>% fetch()
#> # A tibble: 5 × 15
#>   geo_value signal     source geo_type time_type time_value direction issue     
#>   <chr>     <chr>      <chr>  <fct>    <fct>     <date>         <dbl> <date>    
#> 1 06059     smoothed_… fb-su… county   day       2020-12-21        NA 2020-12-22
#> 2 06059     smoothed_… fb-su… county   day       2020-12-22        NA 2020-12-23
#> 3 06059     smoothed_… fb-su… county   day       2020-12-23        NA 2020-12-24
#> 4 06059     smoothed_… fb-su… county   day       2020-12-24        NA 2020-12-25
#> # ℹ 1 more row
#> # ℹ 7 more variables: lag <int>, missing_value <int>, missing_stderr <int>,
#> #   missing_sample_size <int>, value <dbl>, stderr <dbl>, sample_size <dbl>

The covidcast endpoint supports * in its
time and geo fields:

covidcast(
  source = "fb-survey",
  signals = "smoothed_accept_covid_vaccine",
  geo_type = "county",
  time_type = "day",
  time_values = epirange(20201221, 20201225),
  geo_values = "*"
) %>% fetch()
#> # A tibble: 2,025 × 15
#>   geo_value signal     source geo_type time_type time_value direction issue     
#>   <chr>     <chr>      <chr>  <fct>    <fct>     <date>         <dbl> <date>    
#> 1 01000     smoothed_… fb-su… county   day       2020-12-21        NA 2020-12-22
#> 2 01073     smoothed_… fb-su… county   day       2020-12-21        NA 2020-12-22
#> 3 01089     smoothed_… fb-su… county   day       2020-12-21        NA 2020-12-22
#> 4 01097     smoothed_… fb-su… county   day       2020-12-21        NA 2020-12-22
#> # ℹ 2,021 more rows
#> # ℹ 7 more variables: lag <int>, missing_value <int>, missing_stderr <int>,
#> #   missing_sample_size <int>, value <dbl>, stderr <dbl>, sample_size <dbl>
…
