Finding data sources and signals of interest • epidatr
…
pvt_twitter()
HealthTweets total and influenza-related tweets

The covidcast_epidata() function lets you look more
in-depth at the data sources available through the COVIDcast endpoint.
The function describes all available data sources and signals:

covid_sources <- covidcast_epidata()
head(covid_sources$sources, n = 2)
#> $chng
#> [1] "Change Healthcare"
#> [1] "chng"
#> [1] "Change Healthcare is a healthcare technology company that aggregates medical claims data from many healthcare providers. This source includes aggregated counts of claims with confirmed COVID-19 or COVID-related symptoms. All claims data has been de-identified in accordance with HIPAA privacy regulations. "
#> # A tibble: 6 × 2
#>   signal                        short_description                               
#>   <chr>                         <chr>                                           
#> 1 smoothed_outpatient_cli       Estimated percentage of outpatient doctor visit…
#> 2 smoothed_adj_outpatient_cli   Estimated percentage of outpatient doctor visit…
#> 3 smoothed_outpatient_covid     COVID-Confirmed Doctor Visits                   
#> 4 smoothed_adj_outpatient_covid COVID-Confirmed Doctor Visits                   
#> # ℹ 2 more rows
…
Each source is included as an entry in the
covid_sources$sources list, associated with a
tibble describing included signals.

If you use an editor that supports tab completion, such as RStudio,
type covid_sources$source$ and wait for the tab completion
popup. You will be able to browse the list of data sources.

covid_sources$signals
#> # A tibble: 443 × 3
#>   source signal                        short_description                        
#>   <chr>  <chr>                         <chr>                                    
#> 1 chng   smoothed_outpatient_cli       Estimated percentage of outpatient docto…
#> 2 chng   smoothed_adj_outpatient_cli   Estimated percentage of outpatient docto…
#> 3 chng   smoothed_outpatient_covid     COVID-Confirmed Doctor Visits            
#> 4 chng   smoothed_adj_outpatient_covid COVID-Confirmed Doctor Visits            
#> # ℹ 439 more rows
…
API docs: https://cmu-delphi.github.io/delphi-epidata/api/covidcast_signals.html

County geo_values are FIPS
codes and are discussed in the API docs here.
The example below is for Orange County, California.

pub_covidcast(
  source = "fb-survey",
  signals = "smoothed_accept_covid_vaccine",
  geo_type = "county",
  time_type = "day",
  time_values = epirange(20201221, 20201225),
  geo_values = "06059"
)
#> # A tibble: 5 × 15
#>   geo_value signal     source geo_type time_type time_value direction issue     
#>   <chr>     <chr>      <chr>  <fct>    <fct>     <date>         <dbl> <date>    
#> 1 06059     smoothed_… fb-su… county   day       2020-12-21        NA 2020-12-22
#> 2 06059     smoothed_… fb-su… county   day       2020-12-22        NA 2020-12-23
#> 3 06059     smoothed_… fb-su… county   day       2020-12-23        NA 2020-12-24
#> 4 06059     smoothed_… fb-su… county   day       2020-12-24        NA 2020-12-25
#> # ℹ 1 more row
#> # ℹ 7 more variables: lag <dbl>, missing_value <dbl>, missing_stderr <dbl>,
#> #   missing_sample_size <dbl>, value <dbl>, stderr <dbl>, sample_size <dbl>

The covidcast endpoint supports * in its
time and geo fields:

pub_covidcast(
  source = "fb-survey",
  signals = "smoothed_accept_covid_vaccine",
  geo_type = "county",
  time_type = "day",
  time_values = epirange(20201221, 20201225),
  geo_values = "*"
)
#> # A tibble: 2,025 × 15
#>   geo_value signal     source geo_type time_type time_value direction issue     
#>   <chr>     <chr>      <chr>  <fct>    <fct>     <date>         <dbl> <date>    
#> 1 01000     smoothed_… fb-su… county   day       2020-12-21        NA 2020-12-22
#> 2 01073     smoothed_… fb-su… county   day       2020-12-21        NA 2020-12-22
#> 3 01089     smoothed_… fb-su… county   day       2020-12-21        NA 2020-12-22
#> 4 01097     smoothed_… fb-su… county   day       2020-12-21        NA 2020-12-22
#> # ℹ 2,021 more rows
#> # ℹ 7 more variables: lag <dbl>, missing_value <dbl>, missing_stderr <dbl>,
#> #   missing_sample_size <dbl>, value <dbl>, stderr <dbl>, sample_size <dbl>
…
